{
  "name": "Siebjee-python",
  "version": "0.2.3",
  "author": "Siebjee",
  "summary": "python, pyenv and virtual env",
  "license": "Apache-2.0",
  "source": "https://bitbucket.org/ownbaws/python/src",
  "project_page": "https://bitbucket.org/ownbaws/python",
  "issues_url": "https://bitbucket.org/ownbaws/python/issues",
  "dependencies": [
    {
      "name": "puppetlabs-vcsrepo",
      "version_requirement": ">= 1.4.0"
    },
    {
      "name": "puppet-archive",
      "version_requirement": ">= 2.2.0"
    },
    {
      "name": "puppetlabs-stdlib",
      "version_requirement": ">= 4.23.0"
    }
  ],
  "requirements": [
    {
      "name": "puppet",
      "version_requirement": ">= 5.0"
    }
  ],
  "operatingsystem_support": [
    {
      "operatingsystem": "Ubuntu",
      "operatingsystemrelease": [
        "14.04",
        "16.04",
        "18.04"
      ]
    },
    {
      "operatingsystem": "Debian",
      "operatingsystemrelease": [
        "8",
        "9"
      ]
    },
    {
      "operatingsystem": "Centos",
      "operatingsystemrelease": [
        "6",
        "7",
        "8"
      ]
    },
    {
      "operatingsystem": "RedHat",
      "operatingsystemrelease": [
        "5",
        "6",
        "7"
      ]
    }
  ]
}
